^D:\WYST3R\MY DOCUMENTS\VISUAL STUDIO 2013\PROJECTS\N64ANALYZER\N64ANALYZER\MUPEN64PLUS\MUPEN64PLUS-RSP-HLE\PROJECTS\VISUALSTUDIO2013\DEBUG\ALIST.OBJ|D:\WYST3R\MY DOCUMENTS\VISUAL STUDIO 2013\PROJECTS\N64ANALYZER\N64ANALYZER\MUPEN64PLUS\MUPEN64PLUS-RSP-HLE\PROJECTS\VISUALSTUDIO2013\DEBUG\ALIST_AUDIO.OBJ|D:\WYST3R\MY DOCUMENTS\VISUAL STUDIO 2013\PROJECTS\N64ANALYZER\N64ANALYZER\MUPEN64PLUS\MUPEN64PLUS-RSP-HLE\PROJECTS\VISUALSTUDIO2013\DEBUG\ALIST_NAUDIO.OBJ|D:\WYST3R\MY DOCUMENTS\VISUAL STUDIO 2013\PROJECTS\N64ANALYZER\N64ANALYZER\MUPEN64PLUS\MUPEN64PLUS-RSP-HLE\PROJECTS\VISUALSTUDIO2013\DEBUG\ALIST_NEAD.OBJ|D:\WYST3R\MY DOCUMENTS\VISUAL STUDIO 2013\PROJECTS\N64ANALYZER\N64ANALYZER\MUPEN64PLUS\MUPEN64PLUS-RSP-HLE\PROJECTS\VISUALSTUDIO2013\DEBUG\AUDIO.OBJ|D:\WYST3R\MY DOCUMENTS\VISUAL STUDIO 2013\PROJECTS\N64ANALYZER\N64ANALYZER\MUPEN64PLUS\MUPEN64PLUS-RSP-HLE\PROJECTS\VISUALSTUDIO2013\DEBUG\CICX105.OBJ|D:\WYST3R\MY DOCUMENTS\VISUAL STUDIO 2013\PROJECTS\N64ANALYZER\N64ANALYZER\MUPEN64PLUS\MUPEN64PLUS-RSP-HLE\PROJECTS\VISUALSTUDIO2013\DEBUG\HLE.OBJ|D:\WYST3R\MY DOCUMENTS\VISUAL STUDIO 2013\PROJECTS\N64ANALYZER\N64ANALYZER\MUPEN64PLUS\MUPEN64PLUS-RSP-HLE\PROJECTS\VISUALSTUDIO2013\DEBUG\JPEG.OBJ|D:\WYST3R\MY DOCUMENTS\VISUAL STUDIO 2013\PROJECTS\N64ANALYZER\N64ANALYZER\MUPEN64PLUS\MUPEN64PLUS-RSP-HLE\PROJECTS\VISUALSTUDIO2013\DEBUG\MEMORY.OBJ|D:\WYST3R\MY DOCUMENTS\VISUAL STUDIO 2013\PROJECTS\N64ANALYZER\N64ANALYZER\MUPEN64PLUS\MUPEN64PLUS-RSP-HLE\PROJECTS\VISUALSTUDIO2013\DEBUG\MP3.OBJ|D:\WYST3R\MY DOCUMENTS\VISUAL STUDIO 2013\PROJECTS\N64ANALYZER\N64ANALYZER\MUPEN64PLUS\MUPEN64PLUS-RSP-HLE\PROJECTS\VISUALSTUDIO2013\DEBUG\MUSYX.OBJ|D:\WYST3R\MY DOCUMENTS\VISUAL STUDIO 2013\PROJECTS\N64ANALYZER\N64ANALYZER\MUPEN64PLUS\MUPEN64PLUS-RSP-HLE\PROJECTS\VISUALSTUDIO2013\DEBUG\PLUGIN.OBJ
D:\WYST3R\MY DOCUMENTS\VISUAL STUDIO 2013\PROJECTS\N64ANALYZER\DEBUG\MUPEN64PLUS-RSP-HLE.ILK
D:\WYST3R\MY DOCUMENTS\VISUAL STUDIO 2013\PROJECTS\N64ANALYZER\DEBUG\MUPEN64PLUS-RSP-HLE.DLL
D:\WYST3R\MY DOCUMENTS\VISUAL STUDIO 2013\PROJECTS\N64ANALYZER\DEBUG\MUPEN64PLUS-RSP-HLE.PDB
