^D:\Wyst3r\My Documents\Visual Studio 2013\Projects\N64Analyzer\N64Analyzer\mupen64plus\mupen64plus-video-rice\projects\VisualStudio2013\mupen64plus-video-rice.vcxproj
D:\Wyst3r\My Documents\Visual Studio 2013\Projects\N64Analyzer\Release\mupen64plus-video-rice.lib
D:\Wyst3r\My Documents\Visual Studio 2013\Projects\N64Analyzer\Release\mupen64plus-video-rice.exp
