^D:\Wyst3r\My Documents\Visual Studio 2013\Projects\N64Analyzer\N64Analyzer\mupen64plus\mupen64plus-input-sdl\projects\VisualStudio2013\mupen64plus-input-sdl.vcxproj
D:\Wyst3r\My Documents\Visual Studio 2013\Projects\N64Analyzer\Debug\mupen64plus-input-sdl.lib
D:\Wyst3r\My Documents\Visual Studio 2013\Projects\N64Analyzer\Debug\mupen64plus-input-sdl.exp
