^D:\WYST3R\MY DOCUMENTS\VISUAL STUDIO 2013\PROJECTS\N64ANALYZER\N64ANALYZER\MUPEN64PLUS\MUPEN64PLUS-INPUT-SDL\PROJECTS\VISUALSTUDIO2013\RELEASE\AUTOCONFIG.OBJ|D:\WYST3R\MY DOCUMENTS\VISUAL STUDIO 2013\PROJECTS\N64ANALYZER\N64ANALYZER\MUPEN64PLUS\MUPEN64PLUS-INPUT-SDL\PROJECTS\VISUALSTUDIO2013\RELEASE\CONFIG.OBJ|D:\WYST3R\MY DOCUMENTS\VISUAL STUDIO 2013\PROJECTS\N64ANALYZER\N64ANALYZER\MUPEN64PLUS\MUPEN64PLUS-INPUT-SDL\PROJECTS\VISUALSTUDIO2013\RELEASE\OSAL_DYNAMICLIB_WIN32.OBJ|D:\WYST3R\MY DOCUMENTS\VISUAL STUDIO 2013\PROJECTS\N64ANALYZER\N64ANALYZER\MUPEN64PLUS\MUPEN64PLUS-INPUT-SDL\PROJECTS\VISUALSTUDIO2013\RELEASE\PLUGIN.OBJ|D:\WYST3R\MY DOCUMENTS\VISUAL STUDIO 2013\PROJECTS\N64ANALYZER\N64ANALYZER\MUPEN64PLUS\MUPEN64PLUS-INPUT-SDL\PROJECTS\VISUALSTUDIO2013\RELEASE\SDL_KEY_CONVERTER.OBJ
D:\WYST3R\MY DOCUMENTS\VISUAL STUDIO 2013\PROJECTS\N64ANALYZER\N64ANALYZER\MUPEN64PLUS\MUPEN64PLUS-WIN32-DEPS\SDL-1.2.14\LIB\SDL.LIB
C:\PROGRAM FILES (X86)\WINDOWS KITS\8.1\LIB\WINV6.3\UM\X86\KERNEL32.LIB
C:\PROGRAM FILES (X86)\WINDOWS KITS\8.1\LIB\WINV6.3\UM\X86\USER32.LIB
C:\PROGRAM FILES (X86)\WINDOWS KITS\8.1\LIB\WINV6.3\UM\X86\GDI32.LIB
C:\PROGRAM FILES (X86)\WINDOWS KITS\8.1\LIB\WINV6.3\UM\X86\WINSPOOL.LIB
C:\PROGRAM FILES (X86)\WINDOWS KITS\8.1\LIB\WINV6.3\UM\X86\COMDLG32.LIB
C:\PROGRAM FILES (X86)\WINDOWS KITS\8.1\LIB\WINV6.3\UM\X86\ADVAPI32.LIB
C:\PROGRAM FILES (X86)\WINDOWS KITS\8.1\LIB\WINV6.3\UM\X86\SHELL32.LIB
C:\PROGRAM FILES (X86)\WINDOWS KITS\8.1\LIB\WINV6.3\UM\X86\OLE32.LIB
C:\PROGRAM FILES (X86)\WINDOWS KITS\8.1\LIB\WINV6.3\UM\X86\OLEAUT32.LIB
C:\PROGRAM FILES (X86)\WINDOWS KITS\8.1\LIB\WINV6.3\UM\X86\UUID.LIB
C:\PROGRAM FILES (X86)\WINDOWS KITS\8.1\LIB\WINV6.3\UM\X86\ODBC32.LIB
C:\PROGRAM FILES (X86)\WINDOWS KITS\8.1\LIB\WINV6.3\UM\X86\ODBCCP32.LIB
D:\WYST3R\MY DOCUMENTS\VISUAL STUDIO 2013\PROJECTS\N64ANALYZER\N64ANALYZER\MUPEN64PLUS\MUPEN64PLUS-INPUT-SDL\PROJECTS\VISUALSTUDIO2013\RELEASE\AUTOCONFIG.OBJ
D:\WYST3R\MY DOCUMENTS\VISUAL STUDIO 2013\PROJECTS\N64ANALYZER\N64ANALYZER\MUPEN64PLUS\MUPEN64PLUS-INPUT-SDL\PROJECTS\VISUALSTUDIO2013\RELEASE\CONFIG.OBJ
D:\WYST3R\MY DOCUMENTS\VISUAL STUDIO 2013\PROJECTS\N64ANALYZER\N64ANALYZER\MUPEN64PLUS\MUPEN64PLUS-INPUT-SDL\PROJECTS\VISUALSTUDIO2013\RELEASE\OSAL_DYNAMICLIB_WIN32.OBJ
D:\WYST3R\MY DOCUMENTS\VISUAL STUDIO 2013\PROJECTS\N64ANALYZER\N64ANALYZER\MUPEN64PLUS\MUPEN64PLUS-INPUT-SDL\PROJECTS\VISUALSTUDIO2013\RELEASE\PLUGIN.OBJ
D:\WYST3R\MY DOCUMENTS\VISUAL STUDIO 2013\PROJECTS\N64ANALYZER\N64ANALYZER\MUPEN64PLUS\MUPEN64PLUS-INPUT-SDL\PROJECTS\VISUALSTUDIO2013\RELEASE\SDL_KEY_CONVERTER.OBJ
C:\WINDOWS\GLOBALIZATION\SORTING\SORTDEFAULT.NLS
C:\PROGRAM FILES (X86)\MICROSOFT VISUAL STUDIO 12.0\VC\BIN\C2.DLL
C:\PROGRAM FILES (X86)\MICROSOFT VISUAL STUDIO 12.0\VC\LIB\MSVCRT.LIB
C:\PROGRAM FILES (X86)\MICROSOFT VISUAL STUDIO 12.0\VC\LIB\OLDNAMES.LIB
C:\WINDOWS\SYSTEM32\TZRES.DLL
C:\PROGRAM FILES (X86)\MICROSOFT VISUAL STUDIO 12.0\VC\BIN\1033\LINKUI.DLL
C:\PROGRAM FILES (X86)\WINDOWS KITS\8.1\BIN\X86\RC.EXE
C:\PROGRAM FILES (X86)\MICROSOFT VISUAL STUDIO 12.0\VC\BIN\CVTRES.EXE
C:\WINDOWS\SYSTEM32\RSAENH.DLL
