^D:\WYST3R\MY DOCUMENTS\VISUAL STUDIO 2013\PROJECTS\N64ANALYZER\N64ANALYZER\MUPEN64PLUS\MUPEN64PLUS-UI-CONSOLE\SRC\CHEAT.C
/c /I"..\..\..\mupen64plus-core\src\api" /I"..\..\..\mupen64plus-win32-deps\SDL-1.2.14\include" /ZI /nologo /W3 /WX- /Od /Oy- /D WIN32 /D _DEBUG /D _CONSOLE /D _CRT_SECURE_NO_DEPRECATE /D _MBCS /Gm /EHsc /RTC1 /MDd /GS /fp:precise /Zc:wchar_t /Zc:forScope /Fo"DEBUG\\" /Fd"DEBUG\VC120.PDB" /Gd /TP /analyze- D:\WYST3R\MY DOCUMENTS\VISUAL STUDIO 2013\PROJECTS\N64ANALYZER\N64ANALYZER\MUPEN64PLUS\MUPEN64PLUS-UI-CONSOLE\SRC\CHEAT.C
^D:\WYST3R\MY DOCUMENTS\VISUAL STUDIO 2013\PROJECTS\N64ANALYZER\N64ANALYZER\MUPEN64PLUS\MUPEN64PLUS-UI-CONSOLE\SRC\COMPARE_CORE.C
/c /I"..\..\..\mupen64plus-core\src\api" /I"..\..\..\mupen64plus-win32-deps\SDL-1.2.14\include" /ZI /nologo /W3 /WX- /Od /Oy- /D WIN32 /D _DEBUG /D _CONSOLE /D _CRT_SECURE_NO_DEPRECATE /D _MBCS /Gm /EHsc /RTC1 /MDd /GS /fp:precise /Zc:wchar_t /Zc:forScope /Fo"DEBUG\\" /Fd"DEBUG\VC120.PDB" /Gd /TP /analyze- D:\WYST3R\MY DOCUMENTS\VISUAL STUDIO 2013\PROJECTS\N64ANALYZER\N64ANALYZER\MUPEN64PLUS\MUPEN64PLUS-UI-CONSOLE\SRC\COMPARE_CORE.C
^D:\WYST3R\MY DOCUMENTS\VISUAL STUDIO 2013\PROJECTS\N64ANALYZER\N64ANALYZER\MUPEN64PLUS\MUPEN64PLUS-UI-CONSOLE\SRC\CORE_INTERFACE.C
/c /I"..\..\..\mupen64plus-core\src\api" /I"..\..\..\mupen64plus-win32-deps\SDL-1.2.14\include" /ZI /nologo /W3 /WX- /Od /Oy- /D WIN32 /D _DEBUG /D _CONSOLE /D _CRT_SECURE_NO_DEPRECATE /D _MBCS /Gm /EHsc /RTC1 /MDd /GS /fp:precise /Zc:wchar_t /Zc:forScope /Fo"DEBUG\\" /Fd"DEBUG\VC120.PDB" /Gd /TP /analyze- D:\WYST3R\MY DOCUMENTS\VISUAL STUDIO 2013\PROJECTS\N64ANALYZER\N64ANALYZER\MUPEN64PLUS\MUPEN64PLUS-UI-CONSOLE\SRC\CORE_INTERFACE.C
^D:\WYST3R\MY DOCUMENTS\VISUAL STUDIO 2013\PROJECTS\N64ANALYZER\N64ANALYZER\MUPEN64PLUS\MUPEN64PLUS-UI-CONSOLE\SRC\MAIN.C
/c /I"..\..\..\mupen64plus-core\src\api" /I"..\..\..\mupen64plus-win32-deps\SDL-1.2.14\include" /ZI /nologo /W3 /WX- /Od /Oy- /D WIN32 /D _DEBUG /D _CONSOLE /D _CRT_SECURE_NO_DEPRECATE /D _MBCS /Gm /EHsc /RTC1 /MDd /GS /fp:precise /Zc:wchar_t /Zc:forScope /Fo"DEBUG\\" /Fd"DEBUG\VC120.PDB" /Gd /TP /analyze- D:\WYST3R\MY DOCUMENTS\VISUAL STUDIO 2013\PROJECTS\N64ANALYZER\N64ANALYZER\MUPEN64PLUS\MUPEN64PLUS-UI-CONSOLE\SRC\MAIN.C
^D:\WYST3R\MY DOCUMENTS\VISUAL STUDIO 2013\PROJECTS\N64ANALYZER\N64ANALYZER\MUPEN64PLUS\MUPEN64PLUS-UI-CONSOLE\SRC\OSAL_DYNAMICLIB_WIN32.C
/c /I"..\..\..\mupen64plus-core\src\api" /I"..\..\..\mupen64plus-win32-deps\SDL-1.2.14\include" /ZI /nologo /W3 /WX- /Od /Oy- /D WIN32 /D _DEBUG /D _CONSOLE /D _CRT_SECURE_NO_DEPRECATE /D _MBCS /Gm /EHsc /RTC1 /MDd /GS /fp:precise /Zc:wchar_t /Zc:forScope /Fo"DEBUG\\" /Fd"DEBUG\VC120.PDB" /Gd /TP /analyze- D:\WYST3R\MY DOCUMENTS\VISUAL STUDIO 2013\PROJECTS\N64ANALYZER\N64ANALYZER\MUPEN64PLUS\MUPEN64PLUS-UI-CONSOLE\SRC\OSAL_DYNAMICLIB_WIN32.C
^D:\WYST3R\MY DOCUMENTS\VISUAL STUDIO 2013\PROJECTS\N64ANALYZER\N64ANALYZER\MUPEN64PLUS\MUPEN64PLUS-UI-CONSOLE\SRC\OSAL_FILES_WIN32.C
/c /I"..\..\..\mupen64plus-core\src\api" /I"..\..\..\mupen64plus-win32-deps\SDL-1.2.14\include" /ZI /nologo /W3 /WX- /Od /Oy- /D WIN32 /D _DEBUG /D _CONSOLE /D _CRT_SECURE_NO_DEPRECATE /D _MBCS /Gm /EHsc /RTC1 /MDd /GS /fp:precise /Zc:wchar_t /Zc:forScope /Fo"DEBUG\\" /Fd"DEBUG\VC120.PDB" /Gd /TP /analyze- D:\WYST3R\MY DOCUMENTS\VISUAL STUDIO 2013\PROJECTS\N64ANALYZER\N64ANALYZER\MUPEN64PLUS\MUPEN64PLUS-UI-CONSOLE\SRC\OSAL_FILES_WIN32.C
^D:\WYST3R\MY DOCUMENTS\VISUAL STUDIO 2013\PROJECTS\N64ANALYZER\N64ANALYZER\MUPEN64PLUS\MUPEN64PLUS-UI-CONSOLE\SRC\PLUGIN.C
/c /I"..\..\..\mupen64plus-core\src\api" /I"..\..\..\mupen64plus-win32-deps\SDL-1.2.14\include" /ZI /nologo /W3 /WX- /Od /Oy- /D WIN32 /D _DEBUG /D _CONSOLE /D _CRT_SECURE_NO_DEPRECATE /D _MBCS /Gm /EHsc /RTC1 /MDd /GS /fp:precise /Zc:wchar_t /Zc:forScope /Fo"DEBUG\\" /Fd"DEBUG\VC120.PDB" /Gd /TP /analyze- D:\WYST3R\MY DOCUMENTS\VISUAL STUDIO 2013\PROJECTS\N64ANALYZER\N64ANALYZER\MUPEN64PLUS\MUPEN64PLUS-UI-CONSOLE\SRC\PLUGIN.C
